<svg width="20" height="20" viewBox="0 0 20 20" fill="none" xmlns="http://www.w3.org/2000/svg">
<g id="gridicons:trash">
<path id="Vector" d="M5.15567 6.66669H14.8432L14.264 15.9375C14.2375 16.3607 14.0507 16.7578 13.7417 17.0481C13.4327 17.3384 13.0247 17.5 12.6007 17.5H7.399C6.97502 17.5 6.56698 17.3384 6.25796 17.0481C5.94894 16.7578 5.76217 16.3607 5.73567 15.9375L5.15567 6.66669ZM15.8332 4.16669V5.83335H4.1665V4.16669H6.6665V3.33335C6.6665 2.89133 6.8421 2.4674 7.15466 2.15484C7.46722 1.84228 7.89114 1.66669 8.33317 1.66669H11.6665C12.1085 1.66669 12.5325 1.84228 12.845 2.15484C13.1576 2.4674 13.3332 2.89133 13.3332 3.33335V4.16669H15.8332ZM8.33317 4.16669H11.6665V3.33335H8.33317V4.16669Z" fill="#EB5757"/>
</g>
</svg>
